…
##state with the most used cars
df1<-cars %>% 
  select(`used/new`,State) %>% 
  filter(`used/new`=="used") %>% 
  group_by(State,`used/new`) %>%
  count() %>% 
  arrange(-n) %>% 
  ungroup()
df1

## # A tibble: 59 × 3
##    State `used/new`     n
##    <chr> <chr>      <int>
##  1 TX    used        1069
##  2 FL    used         731
##  3 CA    used         554
##  4 IL    used         504
##  5 NY    used         357
##  6 GA    used         354
##  7 NJ    used         290
##  8 VA    used         290
##  9 MD    used         289
## 10 OH    used         288
## # … with 49 more rows

The state with the highest count of used cars is TX with a count of
1069 used cars

##state with the most new cars
df2<-cars %>% 
  select(`used/new`,State) %>% 
  filter(`used/new`=="new") %>% 
  group_by(State,`used/new`) %>%
  count() %>% 
  arrange(-n) %>% 
  ungroup()
df2

## # A tibble: 48 × 3
##    State `used/new`     n
##    <chr> <chr>      <int>
##  1 FL    new          157
##  2 TX    new          156
##  3 CA    new          114
##  4 IL    new           89
##  5 MI    new           85
##  6 NY    new           83
##  7 MA    new           68
##  8 AZ    new           61
##  9 PA    new           55
## 10 VA    new           50
## # … with 38 more rows
…
